/* XPM */
static char * title_1_active_xpm[] = {
"7 21 4 1",
" 	c None",
".	c #8D8D8D",
"+	c #FFFFFF",
"@	c #D5D5D5",
".......",
"+++++++",
"@@@@@@@",
"@@@@@@@",
"@@@@@@@",
"@@@@@@@",
"@@@@@@@",
"@@@@@@@",
"@@@@@@@",
"@@@@@@@",
"@@@@@@@",
"@@@@@@@",
"@@@@@@@",
"@@@@@@@",
"@@@@@@@",
"@@@@@@@",
"@@@@@@@",
"@@@@@@@",
"@@@@@@@",
"@@@@@@@",
"@@@@@@@"};
